0001
05e3
0bc7
1199
1764
1d15
22af
282e
2d86
32be
37c4
3ca1
4144
45b6
49e7
4ddf
5190
54ff
5823
5aff
5d8c
5fca
61b7
6351
6495
6588
661e
6664
664f
65e5
6524
640d
62a0
60e2
5ece
5c6d
59bc
56bf
5378
4fec
4c16
4809
43b7
3f2f
3a72
3580
3064
2b1d
25b3
2025
1a83
14c3
0ef5
091c
0335

